{
  "105": {
    "label": "Life insurance",
    "priority": "3"
  },
  "200": {
    "label": "Current account",
    "priority": "0"
  },
  "165": {
    "label": "LEP SG",
    "priority": "2"
  },
  "150": {
    "label": "Livret A SG",
    "priority": "1"
  }
}